…
47.0

female

feminine

Tatooine

Human

# Filter rows that do not match worlds_of_interest
filter(starwars, !homeworld %in% worlds_of_interest)

## # A tibble: 66 × 11
##    name     height  mass hair_color skin_color eye_color birth_year sex   gender
##    <chr>     <int> <dbl> <chr>      <chr>      <chr>          <dbl> <chr> <chr> 
##  1 Leia Or…    150    49 brown      light      brown             19 fema… femin…
##  2 Obi-Wan…    182    77 auburn, w… fair       blue-gray         57 male  mascu…
##  3 Wilhuff…    180    NA auburn, g… fair       blue              64 male  mascu…
##  4 Chewbac…    228   112 brown      unknown    blue             200 male  mascu…
##  5 Han Solo    180    80 brown      fair       brown             29 male  mascu…
##  6 Greedo      173    74 <NA>       green      black             44 male  mascu…
##  7 Jabba D…    175  1358 <NA>       green-tan… orange           600 herm… mascu…
##  8 Wedge A…    170    77 brown      fair       hazel             21 male  mascu…
##  9 Jek Ton…    180   110 brown      fair       blue              NA male  mascu…
## 10 Yoda         66    17 white      green      brown            896 male  mascu…
## # … with 56 more rows, and 2 more variables: homeworld <chr>, species <chr>

# Filter rows that do not match via piping
starwars %>%
  filter(!homeworld %in% worlds_of_interest)

## # A tibble: 66 × 11
##    name     height  mass hair_color skin_color eye_color birth_year sex   gender
##    <chr>     <int> <dbl> <chr>      <chr>      <chr>          <dbl> <chr> <chr> 
##  1 Leia Or…    150    49 brown      light      brown             19 fema… femin…
##  2 Obi-Wan…    182    77 auburn, w… fair       blue-gray         57 male  mascu…
##  3 Wilhuff…    180    NA auburn, g… fair       blue              64 male  mascu…
##  4 Chewbac…    228   112 brown      unknown    blue             200 male  mascu…
##  5 Han Solo    180    80 brown      fair       brown             29 male  mascu…
##  6 Greedo      173    74 <NA>       green      black             44 male  mascu…
##  7 Jabba D…    175  1358 <NA>       green-tan… orange           600 herm… mascu…
##  8 Wedge A…    170    77 brown      fair       hazel             21 male  mascu…
##  9 Jek Ton…    180   110 brown      fair       blue              NA male  mascu…
## 10 Yoda         66    17 white      green      brown            896 male  mascu…
## # … with 56 more rows, and 2 more variables: homeworld <chr>, species <chr>
…
